<?xml version="1.0" encoding="UTF-8" standalone="no"?>
<!-- Created with Inkscape (http://www.inkscape.org/) -->

<svg
   xmlns:dc="http://purl.org/dc/elements/1.1/"
   xmlns:cc="http://creativecommons.org/ns#"
   xmlns:rdf="http://www.w3.org/1999/02/22-rdf-syntax-ns#"
   xmlns:svg="http://www.w3.org/2000/svg"
   xmlns="http://www.w3.org/2000/svg"
   xmlns:sodipodi="http://sodipodi.sourceforge.net/DTD/sodipodi-0.dtd"
   xmlns:inkscape="http://www.inkscape.org/namespaces/inkscape"
   width="210mm"
   height="210mm"
   viewBox="0 0 210 210"
   version="1.1"
   id="svg869"
   inkscape:version="0.92.4 (5da689c313, 2019-01-14)"
   sodipodi:docname="logo.svg"
   inkscape:export-filename="C:\Users\Jorge\Desktop\bitmap.png"
   inkscape:export-xdpi="120.95"
   inkscape:export-ydpi="120.95">
  <defs
     id="defs863" />
  <sodipodi:namedview
     id="base"
     pagecolor="#ffffff"
     bordercolor="#666666"
     borderopacity="1.0"
     inkscape:pageopacity="0.0"
     inkscape:pageshadow="2"
     inkscape:zoom="0.24748737"
     inkscape:cx="902.10961"
     inkscape:cy="151.81801"
     inkscape:document-units="mm"
     inkscape:current-layer="layer1"
     showgrid="false"
     inkscape:window-width="1920"
     inkscape:window-height="1017"
     inkscape:window-x="-8"
     inkscape:window-y="-8"
     inkscape:window-maximized="1"
     inkscape:snap-page="true" />
  <metadata
     id="metadata866">
    <rdf:RDF>
      <cc:Work
         rdf:about="">
        <dc:format>image/svg+xml</dc:format>
        <dc:type
           rdf:resource="http://purl.org/dc/dcmitype/StillImage" />
        <dc:title></dc:title>
      </cc:Work>
    </rdf:RDF>
  </metadata>
  <g
     inkscape:label="Layer 1"
     inkscape:groupmode="layer"
     id="layer1"
     transform="translate(0,-87)">
    <rect
       style="fill:#ffffff;fill-opacity:1;stroke:none;stroke-width:7.78999996;stroke-miterlimit:4;stroke-dasharray:none;stroke-opacity:1"
       id="rect1453"
       width="210"
       height="210"
       x="0"
       y="87.000008" />
    <g
       id="g1451"
       transform="matrix(1.1422564,0,0,1.1422564,10.097265,-44.2697)">
      <path
         d="m 41.096035,170.12955 5.381833,-2.44469 1.072849,3.30649 -5.768762,1.19596 v -0.24623 q 0,-0.93214 -0.68592,-1.81153 z m 0.510043,2.5678 3.974818,4.36175 -2.81403,2.04017 -2.919556,-5.11801 q 1.108024,-0.31658 1.758768,-1.28391 z m -2.303987,1.28391 -2.901968,5.11801 -2.81403,-2.04017 3.974817,-4.36175 q 0.650745,0.96733 1.741181,1.28391 z m -1.917058,-1.79395 -5.768761,-1.19596 1.072849,-3.30649 5.364244,2.44469 q -0.668332,0.87939 -0.668332,1.82912 z m 1.108025,-2.37434 -0.650745,-5.8567 h 3.482362 l -0.650744,5.8567 q -0.615569,-0.22864 -1.090437,-0.22864 -0.474867,0 -1.090436,0.22864 z"
         style="font-style:normal;font-variant:normal;font-weight:normal;font-stretch:normal;font-size:36.01958466px;line-height:1.25;font-family:'Lucida Console';-inkscape-font-specification:'Lucida Console';letter-spacing:0px;word-spacing:0px;fill:#000000;fill-opacity:1;stroke:none;stroke-width:0.90048969"
         id="path1422"
         inkscape:connector-curvature="0" />
      <path
         d="m 87.028931,184.11396 q -3.218547,1.23114 -5.592885,1.23114 -4.449685,0 -7.246127,-3.5703 -2.796442,-3.58789 -2.796442,-9.26872 0,-6.36674 3.148196,-10.4295 3.165783,-4.08034 8.107924,-4.08034 6.982312,0 6.982312,7.79135 v 11.53752 h 2.163285 v 2.16329 h -4.766263 v -5.83912 q -2.022584,6.05017 -5.047666,6.05017 -1.706006,0 -2.778855,-1.82912 -1.072849,-1.82912 -1.072849,-4.7135 0,-3.97482 1.917058,-6.73609 1.934646,-2.76126 4.731088,-2.76126 0.967323,0 2.251224,0.5628 -0.668332,-4.04517 -4.555211,-4.04517 -3.570301,0 -6.032577,3.58789 -2.444689,3.5703 -2.444689,8.77626 0,4.66074 2.180874,7.65064 2.180873,2.98991 5.575297,2.98991 2.286399,0 5.276306,-1.45978 z m 0,-14.82642 v -3.04267 q -1.108024,-0.7211 -2.057759,-0.7211 -1.952234,0 -3.095434,1.95223 -1.143199,1.95224 -1.143199,5.2939 0,4.44968 1.600479,4.36175 1.002499,-0.0528 2.339163,-2.2864 1.336664,-2.23364 2.35675,-5.55771 z"
         style="font-style:normal;font-variant:normal;font-weight:normal;font-stretch:normal;font-size:36.01958466px;line-height:1.25;font-family:'Lucida Console';-inkscape-font-specification:'Lucida Console';letter-spacing:0px;word-spacing:0px;fill:#000000;fill-opacity:1;stroke:none;stroke-width:0.90048969"
         id="path1424"
         inkscape:connector-curvature="0" />
      <path
         d="m 94.820279,184.69435 1.969821,-7.91446 h -4.045168 l 0.510043,-2.60298 h 4.185869 l 1.266314,-5.15319 h -4.41451 l 0.510043,-2.60298 h 4.555211 l 1.934648,-7.75617 h 2.67333 l -1.91706,7.75617 h 4.08034 l 1.91706,-7.75617 h 2.69092 l -1.93465,7.75617 h 4.00999 l -0.51004,2.60298 h -4.18587 l -1.26631,5.15319 h 4.41451 l -0.51005,2.60298 h -4.55521 l -1.91706,7.91446 h -2.69091 l 1.91706,-7.91446 h -4.080347 l -1.917058,7.91446 z m 5.293891,-10.51744 h 4.04517 l 1.2839,-5.15319 h -4.04517 z"
         style="font-style:normal;font-variant:normal;font-weight:normal;font-stretch:normal;font-size:36.01958466px;line-height:1.25;font-family:'Lucida Console';-inkscape-font-specification:'Lucida Console';letter-spacing:0px;word-spacing:0px;fill:#000000;fill-opacity:1;stroke:none;stroke-width:0.90048969"
         id="path1426"
         inkscape:connector-curvature="0" />
      <path
         d="m 116.55866,184.69435 1.96982,-7.91446 h -4.04517 l 0.51005,-2.60298 h 4.18586 l 1.26632,-5.15319 h -4.41451 l 0.51004,-2.60298 h 4.55521 l 1.93465,-7.75617 h 2.67333 l -1.91706,7.75617 h 4.08034 l 1.91706,-7.75617 h 2.69092 l -1.93465,7.75617 h 4.00999 l -0.51004,2.60298 h -4.18587 l -1.26631,5.15319 h 4.41451 l -0.51005,2.60298 h -4.55521 l -1.91705,7.91446 h -2.69092 l 1.91706,-7.91446 h -4.08035 l -1.91705,7.91446 z m 5.29389,-10.51744 h 4.04517 l 1.2839,-5.15319 h -4.04517 z"
         style="font-style:normal;font-variant:normal;font-weight:normal;font-stretch:normal;font-size:36.01958466px;line-height:1.25;font-family:'Lucida Console';-inkscape-font-specification:'Lucida Console';letter-spacing:0px;word-spacing:0px;fill:#000000;fill-opacity:1;stroke:none;stroke-width:0.90048969"
         id="path1428"
         inkscape:connector-curvature="0" />
      <path
         d="m 116.55866,220.72294 1.96982,-7.91446 h -4.04517 l 0.51005,-2.60298 h 4.18586 l 1.26632,-5.15319 h -4.41451 l 0.51004,-2.60298 h 4.55521 l 1.93465,-7.75617 h 2.67333 l -1.91706,7.75617 h 4.08034 l 1.91706,-7.75617 h 2.69092 l -1.93465,7.75617 h 4.00999 l -0.51004,2.60298 h -4.18587 l -1.26631,5.15319 h 4.41451 l -0.51005,2.60298 h -4.55521 l -1.91705,7.91446 h -2.69092 l 1.91706,-7.91446 h -4.08035 l -1.91705,7.91446 z m 5.29389,-10.51744 h 4.04517 l 1.2839,-5.15319 h -4.04517 z"
         style="font-style:normal;font-variant:normal;font-weight:normal;font-stretch:normal;font-size:36.01958466px;line-height:1.25;font-family:'Lucida Console';-inkscape-font-specification:'Lucida Console';letter-spacing:0px;word-spacing:0px;fill:#000000;fill-opacity:1;stroke:none;stroke-width:0.90048969"
         id="path1430"
         inkscape:connector-curvature="0" />
      <path
         d="m 94.820279,255.69319 1.969821,-7.91446 h -4.045168 l 0.510043,-2.60297 h 4.185869 l 1.266314,-5.1532 h -4.41451 l 0.510043,-2.60297 h 4.555211 l 1.934648,-7.75618 h 2.67333 l -1.91706,7.75618 h 4.08034 l 1.91706,-7.75618 h 2.69092 l -1.93465,7.75618 h 4.00999 l -0.51004,2.60297 h -4.18587 l -1.26631,5.1532 h 4.41451 l -0.51005,2.60297 h -4.55521 l -1.91706,7.91446 h -2.69091 l 1.91706,-7.91446 h -4.080347 l -1.917058,7.91446 z m 5.293891,-10.51743 h 4.04517 l 1.2839,-5.1532 h -4.04517 z"
         style="font-style:normal;font-variant:normal;font-weight:normal;font-stretch:normal;font-size:36.01958466px;line-height:1.25;font-family:'Lucida Console';-inkscape-font-specification:'Lucida Console';letter-spacing:0px;word-spacing:0px;fill:#000000;fill-opacity:1;stroke:none;stroke-width:0.90048969"
         id="path1432"
         inkscape:connector-curvature="0" />
      <path
         d="m 116.55866,255.69319 1.96982,-7.91446 h -4.04517 l 0.51005,-2.60297 h 4.18586 l 1.26632,-5.1532 h -4.41451 l 0.51004,-2.60297 h 4.55521 l 1.93465,-7.75618 h 2.67333 l -1.91706,7.75618 h 4.08034 l 1.91706,-7.75618 h 2.69092 l -1.93465,7.75618 h 4.00999 l -0.51004,2.60297 h -4.18587 l -1.26631,5.1532 h 4.41451 l -0.51005,2.60297 h -4.55521 l -1.91705,7.91446 h -2.69092 l 1.91706,-7.91446 h -4.08035 l -1.91705,7.91446 z m 5.29389,-10.51743 h 4.04517 l 1.2839,-5.1532 h -4.04517 z"
         style="font-style:normal;font-variant:normal;font-weight:normal;font-stretch:normal;font-size:36.01958466px;line-height:1.25;font-family:'Lucida Console';-inkscape-font-specification:'Lucida Console';letter-spacing:0px;word-spacing:0px;fill:#000000;fill-opacity:1;stroke:none;stroke-width:0.90048969"
         id="path1434"
         inkscape:connector-curvature="0" />
    </g>
  </g>
</svg>
